…
## Example

This is a basic example with some simulated data.

``` r
library(causalDR)
# set seed for reproducibility 
set.seed(1)
# simulate a sample of size 200
dat = sim_data(n=200)
head(dat)
#> # A tibble: 6 × 9
#>      id     A     X1     X2 delta1 delta2      Z1      Z2 event_type            
#>   <int> <int>  <dbl>  <dbl>  <dbl>  <dbl>   <dbl>   <dbl> <chr>                 
#> 1     1     1 0.0227 0.0227      0      0 -0.234  -0.232  0.censored before ill…
#> 2     2     0 3.80   3.80        0      1 -0.128  -0.281  2.death without illne…
#> 3     3     0 1.39   4.69        1      1  0.0729  0.0168 3.illness then death  
#> 4     4     0 0.277  0.277       0      0  0.408  -0.231  0.censored before ill…
#> 5     5     1 2.83   5.01        1      1 -0.298  -0.319  3.illness then death  
#> # ℹ 1 more row
```
…
